{
    "KPlugin": {
        "Authors": [
            {
                "Email": "mattr@kde.org",
                "Name": "Matt Rogers",
                "Name[ar]": "Matt Rogers",
                "Name[az]": "Matt Rogers",
                "Name[ca@valencia]": "Matt Rogers",
                "Name[ca]": "Matt Rogers",
                "Name[cs]": "Matt Rogers",
                "Name[de]": "Matt Rogers",
                "Name[el]": "Matt Rogers",
                "Name[en_GB]": "Matt Rogers",
                "Name[es]": "Matt Rogers",
                "Name[et]": "Matt Rogers",
                "Name[eu]": "Matt Rogers",
                "Name[fi]": "Matt Rogers",
                "Name[fr]": "Matt Rogers",
                "Name[gl]": "Matt Rogers",
                "Name[it]": "Matt Rogers",
                "Name[ko]": "Matt Rogers",
                "Name[nl]": "Matt Rogers",
                "Name[nn]": "Matt Rogers",
                "Name[pl]": "Matt Rogers",
                "Name[pt]": "Matt Rogers",
                "Name[pt_BR]": "Matt Rogers",
                "Name[ru]": "Matt Rogers",
                "Name[sk]": "Matt Rogers",
                "Name[sl]": "Matt Rogers",
                "Name[sv]": "Matt Rogers",
                "Name[tr]": "Matt Rogers",
                "Name[uk]": "Matt Rogers",
                "Name[x-test]": "xxMatt Rogersxx",
                "Name[zh_CN]": "Matt Rogers"
            }
        ],
        "Category": "Project Management",
        "Description": "Allows KDevelop to manage CMake-based projects",
        "Description[az]": "KDevelop'a CMake-əsaslı layihələri idarə etməyə imkan verir",
        "Description[bs]": "Dopušta da KDevelop upravlja CMake-baziranim projektima",
        "Description[ca@valencia]": "Permet que el KDevelop gestione projectes basats en CMake",
        "Description[ca]": "Permet que el KDevelop gestioni projectes basats en CMake",
        "Description[cs]": "Umožňuje KDevelop spravovat projekty založené na CMake",
        "Description[de]": "Erlaubt das Verwalten CMake-basierter Projekte mit KDevelop",
        "Description[el]": "Επιτρέπει στο KDevelop τη διαχείριση έργων με βάση το cmake",
        "Description[en_GB]": "Allows KDevelop to manage CMake-based projects",
        "Description[es]": "Permite que KDevelop gestione proyectos basados en CMake",
        "Description[et]": "Võimaldab KDevelopil hallata CMake'i-põhiseid projekte",
        "Description[eu]": "KDevelop CMake-n oinarritutako proiektuak kudeatzen uzten du",
        "Description[fi]": "Sallii KDevelop-ohjelman hallinnoida CMake-perustaisia projekteja",
        "Description[fr]": "Permet à KDevelop de gérer des projets fondés sur CMake",
        "Description[gl]": "Permítelle a KDevelop xestionar proxectos baseados en CMake.",
        "Description[it]": "Permette a KDevelop di gestire i progetti basati su CMake",
        "Description[ko]": "KDevelop에서 CMake 프로젝트를 관리합니다",
        "Description[nl]": "Staat KDevelop toe om op CMake gebaseerde projecten te beheren",
        "Description[pl]": "Umożliwia zarządzanie projektami CMake",
        "Description[pt]": "Permitir ao KDevelop gerir projectos baseados no CMake",
        "Description[pt_BR]": "Permite ao KDevelop gerenciar projetos baseados em CMake",
        "Description[sk]": "Povolí KDevelopu spravovať projekty založené na CMake",
        "Description[sl]": "Omogoča, da KDevelop upravlja s projekti temelječimi na CMake",
        "Description[sv]": "Låter KDevelop hantera CMake-baserade projekt",
        "Description[tr]": "KDevelop uygulamasının CMake temelli projeleri yönetmesine izin verir",
        "Description[uk]": "Надає змогу KDevelop керувати заснованими на CMake проєктами",
        "Description[x-test]": "xxAllows KDevelop to manage CMake-based projectsxx",
        "Description[zh_CN]": "允许 KDevelop 管理基于 CMake 的工程",
        "Icon": "cmake",
        "Id": "KDevCMakeManager",
        "License": "GPL",
        "Name": "CMake Project Manager",
        "Name[az]": "CMake layihə meneceri",
        "Name[bs]": "Cmake menadžer projekta",
        "Name[ca@valencia]": "Gestor de projectes CMake",
        "Name[ca]": "Gestor de projectes CMake",
        "Name[cs]": "Správce projektů CMake",
        "Name[de]": "CMake-Projektverwaltung",
        "Name[el]": "Διαχειριστής έργου cmake",
        "Name[en_GB]": "CMake Project Manager",
        "Name[es]": "Gestor de proyectos CMake",
        "Name[et]": "CMake'i projektihaldur",
        "Name[eu]": "CMake proiektu-kudeatzailea",
        "Name[fi]": "CMake-projektinhallinta",
        "Name[fr]": "Gestionnaire de projet CMake",
        "Name[gl]": "Xestor de proxectos CMake",
        "Name[it]": "Gestore progetto CMake",
        "Name[ko]": "CMake 프로젝트 관리자",
        "Name[nl]": "CMake-projectbeheerder",
        "Name[pl]": "Zarządzanie projektami CMake",
        "Name[pt]": "Gestor de Projectos do CMake",
        "Name[pt_BR]": "Gerenciador de Projeto CMake",
        "Name[sk]": "Projektový manažér CMake",
        "Name[sl]": "Upravljalnik projektov CMake",
        "Name[sv]": "CMake projekthanterare",
        "Name[tr]": "CMake Proje Yöneticisi",
        "Name[uk]": "Керування проєктами CMake",
        "Name[x-test]": "xxCMake Project Managerxx",
        "Name[zh_CN]": "CMake 工程管理器"
    },
    "X-KDevelop-Category": "Project",
    "X-KDevelop-IRequired": [
        "org.kdevelop.IProjectBuilder@KDevCMakeBuilder"
    ],
    "X-KDevelop-Interfaces": [
        "org.kdevelop.IBuildSystemManager",
        "org.kdevelop.IProjectFileManager",
        "ILanguageSupport"
    ],
    "X-KDevelop-Languages": [
        "CMake"
    ],
    "X-KDevelop-LoadMode": "AlwaysOn",
    "X-KDevelop-Mode": "GUI",
    "X-KDevelop-ProjectFilesFilter": [
        "CMakeLists.txt"
    ],
    "X-KDevelop-ProjectFilesFilterDescription": "CMake Project Files",
    "X-KDevelop-SupportedMimeTypes": [
        "text/x-cmake"
    ]
}
