{
    "KPlugin": {
        "Authors": [
            {
                "Name": "Milian Wolff",
                "Name[ar]": "Milian Wolff",
                "Name[az]": "Milian Wolff",
                "Name[ca@valencia]": "Milian Wolff",
                "Name[ca]": "Milian Wolff",
                "Name[cs]": "Milian Wolff",
                "Name[de]": "Milian Wolff",
                "Name[el]": "Milian Wolff",
                "Name[en_GB]": "Milian Wolff",
                "Name[es]": "Milian Wolff",
                "Name[et]": "Milian Wolff",
                "Name[eu]": "Milian Wolff",
                "Name[fr]": "Milian Wolff",
                "Name[gl]": "Milian Wolff",
                "Name[it]": "Milian Wolff",
                "Name[ko]": "Milian Wolff",
                "Name[nl]": "Milian Wolff",
                "Name[nn]": "Milian Wolff",
                "Name[pl]": "Milian Wolff",
                "Name[pt]": "Milian Wolff",
                "Name[pt_BR]": "Milian Wolff",
                "Name[ru]": "Milian Wolff",
                "Name[sk]": "Milian Wolff",
                "Name[sl]": "Milian Wolff",
                "Name[sv]": "Milian Wolff",
                "Name[tr]": "Milian Wolff",
                "Name[uk]": "Milian Wolff",
                "Name[x-test]": "xxMilian Wolffxx",
                "Name[zh_CN]": "Milian Wolff"
            }
        ],
        "Category": "Project Management",
        "Description": "Configure which files and folders inside the project folder should be included or excluded.",
        "Description[ar]": "اضبط أيّ الملفّات والمجلّدات داخل مجلّد المشروع يجب تضمينها أو استثنائها.",
        "Description[az]": "Hansı faylların və qovluqların layiyə qovluğuna daxil edilib edilməyəcəyini tənzimləyin.",
        "Description[ca@valencia]": "Configura quins fitxers i carpetes dins de la carpeta del projecte s'han d'incloure o excloure.",
        "Description[ca]": "Configura quins fitxers i carpetes dins de la carpeta del projecte s'han d'incloure o excloure.",
        "Description[de]": "Legt fest, welche Dateien und Ordner innerhalb des Projektordners ein- oder ausgeschlossen werden sollen.",
        "Description[el]": "Διαμορφώνει τα αρχεία και τους φακέλους μέσα στο έργο που θα πρέπει να συμπεριλαμβάνονται ή να αποκλείονται.",
        "Description[en_GB]": "Configure which files and folders inside the project folder should be included or excluded.",
        "Description[es]": "Configurar los archivos y carpetas que pertenecen a la carpeta del proyecto y que deben ser incluidos o excluidos.",
        "Description[et]": "Seadistamine, millised projektikataloogi failid ja kataloogid kaasa arvata või välja jätta.",
        "Description[eu]": "Konfiguratu zeintzuk fitxategi eta karpeta gehitu edo kenduko diren proiektu baten barnean",
        "Description[fr]": "Configurer quels fichiers et dossiers à l'intérieur du dossier projet doivent être inclus ou exclus.",
        "Description[gl]": "Configurar cales ficheiros e cartafoles dentro do cartafol do proxecto deben incluírse ou excluírse.",
        "Description[it]": "Configura quali file e cartelle nella cartella del progetto devono essere incluse o escluse.",
        "Description[ko]": "프로젝트 폴더에서 포함하거나 제외할 파일이나 폴더 설정합니다.",
        "Description[nl]": "Stel in welke bestanden en mappen in de projectmap meegenomen of uitgesloten moeten worden.",
        "Description[pl]": "Określa uwzględniane i wykluczane pliki i katalogi w projekcie.",
        "Description[pt]": "Configurar os ficheiros ou pastas, dentro da pasta do projecto, que deverão ser incluídos ou excluídos.",
        "Description[pt_BR]": "Configura os arquivos e pastas, dentro da pasta do projeto, que devem ser incluídos ou excluídos.",
        "Description[sk]": "Nastaviť, ktoré súbory a priečinky v priečinku projektu majú byť zahrnuté alebo vylúčené.",
        "Description[sl]": "Nastavi katere datoteke in mape znotraj mape projekta naj bodo vključene ali izključene.",
        "Description[sv]": "Anpassa vilka filer och kataloger inne i projektkatalogen som ska inkluderas eller exkluderas.",
        "Description[tr]": "Proje klasörü içerisindeki hangi dosya ve klasörlerin dahil edilip edilmeyeceğini yapılandır.",
        "Description[uk]": "За допомогою цього модуля можна визначити, які файли і теки у теці проєкту має бути включено або виключено з його складу.",
        "Description[x-test]": "xxConfigure which files and folders inside the project folder should be included or excluded.xx",
        "Description[zh_CN]": "配置工程文件中哪些文件被加入或排除。",
        "Description[zh_TW]": "設定專案資料夾中要包含或排除哪些檔案與資料夾。",
        "Icon": "view-filter",
        "Id": "KDevProjectFilter",
        "Name": "Project Filter",
        "Name[ar]": "مرشّح المشروع",
        "Name[az]": "Layihə süzgəci",
        "Name[ca@valencia]": "Filtre de projecte",
        "Name[ca]": "Filtre de projecte",
        "Name[cs]": "Filtr projektů",
        "Name[da]": "Projektfilter",
        "Name[de]": "Projektfilter",
        "Name[el]": "Φίλτρο έργου",
        "Name[en_GB]": "Project Filter",
        "Name[es]": "Filtro de proyectos",
        "Name[et]": "Projektifilter",
        "Name[eu]": "Proiektuen iragazia",
        "Name[fr]": "Filtre de projet",
        "Name[gl]": "Filtro do proxecto",
        "Name[hu]": "Projektszűrő",
        "Name[it]": "Filtro progetto",
        "Name[kk]": "Жоба сүзгісі",
        "Name[ko]": "프로젝트 필터",
        "Name[nb]": "Prosjektfilter",
        "Name[nl]": "Projectfilter",
        "Name[pl]": "Filtr projektu",
        "Name[pt]": "Filtro de Projectos",
        "Name[pt_BR]": "Filtro de projetos",
        "Name[ru]": "Фильтр проекта",
        "Name[sk]": "Filter projektu",
        "Name[sl]": "Filter projektov",
        "Name[sv]": "Projektfilter",
        "Name[tr]": "Proje Süzgeci",
        "Name[uk]": "Фільтр проєкту",
        "Name[x-test]": "xxProject Filterxx",
        "Name[zh_CN]": "工程过滤器",
        "Name[zh_TW]": "專案過濾器"
    },
    "X-KDevelop-Category": "Project",
    "X-KDevelop-Interfaces": [
        "org.kdevelop.IProjectFilter"
    ],
    "X-KDevelop-LoadMode": "AlwaysOn",
    "X-KDevelop-Mode": "GUI"
}
