{
    "KPlugin": {
        "Authors": [
            {
                "Name": "Alexander Dymo",
                "Name[ar]": "Alexander Dymo",
                "Name[az]": "Alexander Dymo",
                "Name[ca@valencia]": "Alexander Dymo",
                "Name[ca]": "Alexander Dymo",
                "Name[cs]": "Alexander Dymo",
                "Name[de]": "Alexander Dymo",
                "Name[el]": "Alexander Dymo",
                "Name[en_GB]": "Alexander Dymo",
                "Name[es]": "Alexander Dymo",
                "Name[et]": "Alexander Dymo",
                "Name[eu]": "Alexander Dymo",
                "Name[fr]": "Alexander Dymo",
                "Name[gl]": "Alexander Dymo",
                "Name[it]": "Alexander Dymo",
                "Name[ko]": "Alexander Dymo",
                "Name[nl]": "Alexander Dymo",
                "Name[nn]": "Alexander Dymo",
                "Name[pl]": "Alexander Dymo",
                "Name[pt]": "Alexander Dymo",
                "Name[pt_BR]": "Alexander Dymo",
                "Name[ru]": "Александр Дымо",
                "Name[sk]": "Alexander Dymo",
                "Name[sl]": "Alexander Dymo",
                "Name[sv]": "Alexander Dymo",
                "Name[tr]": "Alexander Dymo",
                "Name[uk]": "Олександр Димо",
                "Name[x-test]": "xxAlexander Dymoxx",
                "Name[zh_CN]": "Alexander Dymo"
            }
        ],
        "Category": "Core",
        "Description": "Manages templates for source files",
        "Description[ar]": "تدير قوالب الملفّات المصدريّة",
        "Description[az]": "Mənbə faylı üçün şablonları idarə edir",
        "Description[ca@valencia]": "Gestiona les plantilles dels fitxers de codi font",
        "Description[ca]": "Gestiona les plantilles dels fitxers de codi font",
        "Description[cs]": "Spravuje šablony pro zdrojové soubory",
        "Description[de]": "Verwaltung von Vorlagen für Quelltextdateien",
        "Description[el]": "Διαχειρίζεται templates για πηγαία αρχεία",
        "Description[en_GB]": "Manages templates for source files",
        "Description[es]": "Gestiona plantillas para archivos de código fuente",
        "Description[et]": "Lähtekoodi failide mallide haldamine",
        "Description[eu]": "Iturri-fitxategien txantiloiak kudeatzen ditu",
        "Description[fr]": "Gère les modèles de fichiers sources",
        "Description[gl]": "Xestiona modelos para os ficheiros de fonte",
        "Description[it]": "Gestisce i modelli per i file sorgente",
        "Description[ko]": "소스 파일 템플릿 설정",
        "Description[nl]": "Beheert sjablonen voor broncodebestanden",
        "Description[pl]": "Zarządza szablonami dla plików źródłowych",
        "Description[pt]": "Gere os modelos de ficheiros de código",
        "Description[pt_BR]": "Gerencia os modelos dos arquivos de código",
        "Description[sk]": "Spravuje šablóny pre zdrojové súbory",
        "Description[sl]": "Upravlja predloge za datoteke z izvorno kodo",
        "Description[sv]": "Hanterar mallar för källkodsfiler",
        "Description[tr]": "Kaynak dosyaları için şablonları yönetir",
        "Description[uk]": "Керування шаблонами для початкових файлів коду",
        "Description[x-test]": "xxManages templates for source filesxx",
        "Description[zh_CN]": "管理源文件的模板",
        "Description[zh_TW]": "管理源碼檔的樣本",
        "Icon": "code-class",
        "Id": "kdevfiletemplates",
        "License": "GPL",
        "Name": "File Templates Configuration",
        "Name[ar]": "ضبط قوالب الملفّات",
        "Name[az]": "Fayl şablonlarını tənzimləyin",
        "Name[bs]": "Konfiguracija predložaka datoteka",
        "Name[ca@valencia]": "Configuració de les plantilles de fitxer",
        "Name[ca]": "Configuració de les plantilles de fitxer",
        "Name[cs]": "Nastavení šablon souborů",
        "Name[da]": "Konfiguration af filskabeloner",
        "Name[de]": "Einrichtung der Dateivorlagen",
        "Name[el]": "Διαμόρφωση αρχείων templates",
        "Name[en_GB]": "File Templates Configuration",
        "Name[es]": "Configuración de plantillas de archivos",
        "Name[et]": "Failimallide seadistamine",
        "Name[eu]": "Fitxategi txantiloien konfigurazioa",
        "Name[fr]": "Configuration des modèles de fichiers",
        "Name[gl]": "Configuración dos modelos de ficheiros",
        "Name[hu]": "Fájl sablonok beállítása",
        "Name[it]": "Configurazione dei file dei modelli",
        "Name[kk]": "Файл үлгілерді баптау",
        "Name[ko]": "파일 템플릿 설정",
        "Name[nb]": "Oppsett av fil-maler",
        "Name[nl]": "Configuratie van sjabloonbestanden",
        "Name[pl]": "Ustawienia szablonów plików",
        "Name[pt]": "Configuração dos Modelos de Ficheiros",
        "Name[pt_BR]": "Configuração dos modelos de arquivos",
        "Name[ru]": "Настройка шаблонов файлов",
        "Name[sk]": "Nastavenie šablón súborov",
        "Name[sl]": "Nastavitev predlog dokumentov",
        "Name[sv]": "Inställning av filmallar",
        "Name[tr]": "Dosya Şablon Yapılandırması",
        "Name[uk]": "Налаштовування шаблонів файлів",
        "Name[x-test]": "xxFile Templates Configurationxx",
        "Name[zh_CN]": "文件模板配置",
        "Name[zh_TW]": "檔案樣本設定",
        "Version": "0.1"
    },
    "X-KDevelop-Category": "Global",
    "X-KDevelop-Interfaces": [
        "org.kdevelop.ITemplateProvider"
    ],
    "X-KDevelop-Mode": "GUI"
}
